<?xml version="1.0" encoding="UTF-8" standalone="no"?>
<graphml xmlns="http://graphml.graphdrawing.org/xmlns" xmlns:java="http://www.yworks.com/xml/yfiles-common/1.0/java" xmlns:sys="http://www.yworks.com/xml/yfiles-common/markup/primitives/2.0" xmlns:x="http://www.yworks.com/xml/yfiles-common/markup/2.0" xmlns:xsi="http://www.w3.org/2001/XMLSchema-instance" xmlns:y="http://www.yworks.com/xml/graphml" xmlns:yed="http://www.yworks.com/xml/yed/3" xsi:schemaLocation="http://graphml.graphdrawing.org/xmlns http://www.yworks.com/xml/schema/graphml/1.1/ygraphml.xsd">
  <!--Created by yEd 3.20.1-->
  <key attr.name="Description" attr.type="string" for="graph" id="d0"/>
  <key for="port" id="d1" yfiles.type="portgraphics"/>
  <key for="port" id="d2" yfiles.type="portgeometry"/>
  <key for="port" id="d3" yfiles.type="portuserdata"/>
  <key attr.name="url" attr.type="string" for="node" id="d4"/>
  <key attr.name="description" attr.type="string" for="node" id="d5"/>
  <key for="node" id="d6" yfiles.type="nodegraphics"/>
  <key for="graphml" id="d7" yfiles.type="resources"/>
  <key attr.name="url" attr.type="string" for="edge" id="d8"/>
  <key attr.name="description" attr.type="string" for="edge" id="d9"/>
  <key for="edge" id="d10" yfiles.type="edgegraphics"/>
  <graph edgedefault="directed" id="G">
    <data key="d0"/>
    <node id="n0">
      <data key="d6">
        <y:GenericNode configuration="com.yworks.flowchart.terminator">
          <y:Geometry height="40.0" width="255.2" x="513.3999999999996" y="156.0"/>
          <y:Fill color2="#B7C9E3" hasColor="false" transparent="false"/>
          <y:BorderStyle color="#000000" type="line" width="1.0"/>
          <y:NodeLabel alignment="center" autoSizePolicy="content" fontFamily="Dialog" fontSize="12" fontStyle="plain" hasBackgroundColor="false" hasLineColor="false" height="18.701171875" horizontalTextPosition="center" iconTextGap="4" modelName="custom" textColor="#000000" verticalTextPosition="bottom" visible="true" width="45.94140625" x="104.62929687500002" xml:space="preserve" y="10.6494140625">Начало<y:LabelModel><y:SmartNodeLabelModel distance="4.0"/></y:LabelModel><y:ModelParameter><y:SmartNodeLabelModelParameter labelRatioX="0.0" labelRatioY="0.0" nodeRatioX="0.0" nodeRatioY="0.0" offsetX="0.0" offsetY="0.0" upX="0.0" upY="-1.0"/></y:ModelParameter></y:NodeLabel>
        </y:GenericNode>
      </data>
    </node>
    <node id="n1">
      <data key="d6">
        <y:GenericNode configuration="com.yworks.flowchart.loopLimit">
          <y:Geometry height="40.0" width="255.20000000000005" x="513.3999999999996" y="226.0"/>
          <y:Fill color2="#B7C9E3" hasColor="false" transparent="false"/>
          <y:BorderStyle color="#000000" type="line" width="1.0"/>
          <y:NodeLabel alignment="center" autoSizePolicy="content" fontFamily="Dialog" fontSize="12" fontStyle="plain" hasBackgroundColor="false" hasLineColor="false" height="18.701171875" horizontalTextPosition="center" iconTextGap="4" modelName="custom" textColor="#000000" verticalTextPosition="bottom" visible="true" width="106.8671875" x="74.16640625000014" xml:space="preserve" y="2.6133142224997528">Цикл по i от 0 до 3<y:LabelModel><y:SmartNodeLabelModel distance="4.0"/></y:LabelModel><y:ModelParameter><y:SmartNodeLabelModelParameter labelRatioX="0.0" labelRatioY="-0.5" nodeRatioX="6.661338147750939E-16" nodeRatioY="-0.4346671444375062" offsetX="0.0" offsetY="0.0" upX="0.0" upY="-1.0"/></y:ModelParameter></y:NodeLabel>
          <y:NodeLabel alignment="center" autoSizePolicy="content" fontFamily="Dialog" fontSize="12" fontStyle="plain" hasBackgroundColor="false" hasLineColor="false" height="18.701171875" horizontalTextPosition="center" iconTextGap="4" modelName="custom" textColor="#000000" verticalTextPosition="bottom" visible="true" width="58.943359375" x="98.12832031250002" xml:space="preserve" y="13.361218222499701">с шагом 1<y:LabelModel><y:SmartNodeLabelModel distance="4.0"/></y:LabelModel><y:ModelParameter><y:SmartNodeLabelModelParameter labelRatioX="0.0" labelRatioY="0.5" nodeRatioX="0.0" nodeRatioY="0.30155975243749256" offsetX="0.0" offsetY="0.0" upX="0.0" upY="-1.0"/></y:ModelParameter></y:NodeLabel>
        </y:GenericNode>
      </data>
    </node>
    <node id="n2">
      <data key="d6">
        <y:GenericNode configuration="com.yworks.flowchart.process">
          <y:Geometry height="40.0" width="255.2" x="513.3999999999996" y="296.0"/>
          <y:Fill color2="#B7C9E3" hasColor="false" transparent="false"/>
          <y:BorderStyle color="#000000" type="line" width="1.0"/>
          <y:NodeLabel alignment="center" autoSizePolicy="content" fontFamily="Dialog" fontSize="12" fontStyle="plain" hasBackgroundColor="false" hasLineColor="false" height="18.701171875" horizontalTextPosition="center" iconTextGap="4" modelName="custom" textColor="#000000" verticalTextPosition="bottom" visible="true" width="119.30078125" x="67.94960937500002" xml:space="preserve" y="10.6494140625">Получить i-й октет ip<y:LabelModel><y:SmartNodeLabelModel distance="4.0"/></y:LabelModel><y:ModelParameter><y:SmartNodeLabelModelParameter labelRatioX="0.0" labelRatioY="0.0" nodeRatioX="0.0" nodeRatioY="0.0" offsetX="0.0" offsetY="0.0" upX="0.0" upY="-1.0"/></y:ModelParameter></y:NodeLabel>
        </y:GenericNode>
      </data>
    </node>
    <node id="n3">
      <data key="d6">
        <y:GenericNode configuration="com.yworks.flowchart.process">
          <y:Geometry height="40.0" width="255.2" x="513.3999999999996" y="366.0"/>
          <y:Fill color2="#B7C9E3" hasColor="false" transparent="false"/>
          <y:BorderStyle color="#000000" type="line" width="1.0"/>
          <y:NodeLabel alignment="center" autoSizePolicy="content" fontFamily="Dialog" fontSize="12" fontStyle="plain" hasBackgroundColor="false" hasLineColor="false" height="18.701171875" horizontalTextPosition="center" iconTextGap="4" modelName="custom" textColor="#000000" verticalTextPosition="bottom" visible="true" width="142.837890625" x="56.18105468750002" xml:space="preserve" y="10.6494140625">Получить i-й октет маски<y:LabelModel><y:SmartNodeLabelModel distance="4.0"/></y:LabelModel><y:ModelParameter><y:SmartNodeLabelModelParameter labelRatioX="0.0" labelRatioY="0.0" nodeRatioX="0.0" nodeRatioY="0.0" offsetX="0.0" offsetY="0.0" upX="0.0" upY="-1.0"/></y:ModelParameter></y:NodeLabel>
        </y:GenericNode>
      </data>
    </node>
    <node id="n4">
      <data key="d6">
        <y:GenericNode configuration="com.yworks.flowchart.process">
          <y:Geometry height="40.0" width="255.2" x="513.3999999999996" y="436.0"/>
          <y:Fill color2="#B7C9E3" hasColor="false" transparent="false"/>
          <y:BorderStyle color="#000000" type="line" width="1.0"/>
          <y:NodeLabel alignment="center" autoSizePolicy="content" fontFamily="Dialog" fontSize="12" fontStyle="plain" hasBackgroundColor="false" hasLineColor="false" height="18.701171875" horizontalTextPosition="center" iconTextGap="4" modelName="custom" textColor="#000000" verticalTextPosition="bottom" visible="true" width="187.216796875" x="33.99160156250002" xml:space="preserve" y="10.6494140625">res_octet = ip_octet | ~mask_octet<y:LabelModel><y:SmartNodeLabelModel distance="4.0"/></y:LabelModel><y:ModelParameter><y:SmartNodeLabelModelParameter labelRatioX="0.0" labelRatioY="0.0" nodeRatioX="0.0" nodeRatioY="0.0" offsetX="0.0" offsetY="0.0" upX="0.0" upY="-1.0"/></y:ModelParameter></y:NodeLabel>
        </y:GenericNode>
      </data>
    </node>
    <node id="n5">
      <data key="d6">
        <y:GenericNode configuration="com.yworks.flowchart.process">
          <y:Geometry height="40.0" width="255.2" x="513.3999999999996" y="506.0"/>
          <y:Fill color2="#B7C9E3" hasColor="false" transparent="false"/>
          <y:BorderStyle color="#000000" type="line" width="1.0"/>
          <y:NodeLabel alignment="center" autoSizePolicy="content" fontFamily="Dialog" fontSize="12" fontStyle="plain" hasBackgroundColor="false" hasLineColor="false" height="18.701171875" horizontalTextPosition="center" iconTextGap="4" modelName="custom" textColor="#000000" verticalTextPosition="bottom" visible="true" width="257.11328125" x="-0.9566406249999773" xml:space="preserve" y="10.6494140625">Добавить к результирующей строке res_octet<y:LabelModel><y:SmartNodeLabelModel distance="4.0"/></y:LabelModel><y:ModelParameter><y:SmartNodeLabelModelParameter labelRatioX="0.0" labelRatioY="0.0" nodeRatioX="0.0" nodeRatioY="0.0" offsetX="0.0" offsetY="0.0" upX="0.0" upY="-1.0"/></y:ModelParameter></y:NodeLabel>
        </y:GenericNode>
      </data>
    </node>
    <node id="n6">
      <data key="d6">
        <y:GenericNode configuration="com.yworks.flowchart.loopLimitEnd">
          <y:Geometry height="40.0" width="255.20000000000005" x="513.3999999999996" y="576.0"/>
          <y:Fill color2="#B7C9E3" hasColor="false" transparent="false"/>
          <y:BorderStyle color="#000000" type="line" width="1.0"/>
          <y:NodeLabel alignment="center" autoSizePolicy="content" fontFamily="Dialog" fontSize="12" fontStyle="plain" hasBackgroundColor="false" hasLineColor="false" height="18.701171875" horizontalTextPosition="center" iconTextGap="4" modelName="custom" textColor="#000000" verticalTextPosition="bottom" visible="true" width="96.1796875" x="79.51015625000002" xml:space="preserve" y="10.6494140625">Конец цикла по i<y:LabelModel><y:SmartNodeLabelModel distance="4.0"/></y:LabelModel><y:ModelParameter><y:SmartNodeLabelModelParameter labelRatioX="0.0" labelRatioY="0.0" nodeRatioX="0.0" nodeRatioY="0.0" offsetX="0.0" offsetY="0.0" upX="0.0" upY="-1.0"/></y:ModelParameter></y:NodeLabel>
        </y:GenericNode>
      </data>
    </node>
    <node id="n7">
      <data key="d6">
        <y:GenericNode configuration="com.yworks.flowchart.process">
          <y:Geometry height="40.0" width="255.2" x="513.3999999999996" y="646.0"/>
          <y:Fill color2="#B7C9E3" hasColor="false" transparent="false"/>
          <y:BorderStyle color="#000000" type="line" width="1.0"/>
          <y:NodeLabel alignment="center" autoSizePolicy="content" fontFamily="Dialog" fontSize="12" fontStyle="plain" hasBackgroundColor="false" hasLineColor="false" height="18.701171875" horizontalTextPosition="center" iconTextGap="4" modelName="custom" textColor="#000000" verticalTextPosition="bottom" visible="true" width="157.099609375" x="49.05019531250002" xml:space="preserve" y="10.6494140625">Вернуть полученный адрес<y:LabelModel><y:SmartNodeLabelModel distance="4.0"/></y:LabelModel><y:ModelParameter><y:SmartNodeLabelModelParameter labelRatioX="0.0" labelRatioY="0.0" nodeRatioX="0.0" nodeRatioY="0.0" offsetX="0.0" offsetY="0.0" upX="0.0" upY="-1.0"/></y:ModelParameter></y:NodeLabel>
        </y:GenericNode>
      </data>
    </node>
    <node id="n8">
      <data key="d6">
        <y:GenericNode configuration="com.yworks.flowchart.annotation">
          <y:Geometry height="40.0" width="215.2" x="798.5999999999997" y="436.0"/>
          <y:Fill color2="#B7C9E3" hasColor="false" transparent="false"/>
          <y:BorderStyle color="#000000" type="line" width="1.0"/>
          <y:NodeLabel alignment="center" autoSizePolicy="content" fontFamily="Dialog" fontSize="12" fontStyle="plain" hasBackgroundColor="false" hasLineColor="false" height="18.701171875" horizontalTextPosition="center" iconTextGap="4" modelName="custom" textColor="#000000" verticalTextPosition="bottom" visible="true" width="131.81640625" x="5.326171875" xml:space="preserve" y="4.0">Побитовое сложение с<y:LabelModel><y:SmartNodeLabelModel distance="4.0"/></y:LabelModel><y:ModelParameter><y:SmartNodeLabelModelParameter labelRatioX="-0.5" labelRatioY="-0.5" nodeRatioX="-0.4752501306923792" nodeRatioY="-0.5" offsetX="0.0" offsetY="4.0" upX="0.0" upY="-1.0"/></y:ModelParameter></y:NodeLabel>
          <y:NodeLabel alignment="center" autoSizePolicy="content" fontFamily="Dialog" fontSize="12" fontStyle="plain" hasBackgroundColor="false" hasLineColor="false" height="18.701171875" horizontalTextPosition="center" iconTextGap="4" modelName="custom" textColor="#000000" verticalTextPosition="bottom" visible="true" width="161.34765625" x="5.326171875" xml:space="preserve" y="17.298828125">побитовой инверсией маски<y:LabelModel><y:SmartNodeLabelModel distance="4.0"/></y:LabelModel><y:ModelParameter><y:SmartNodeLabelModelParameter labelRatioX="0.0" labelRatioY="0.5" nodeRatioX="-0.1003717472118959" nodeRatioY="0.5" offsetX="0.0" offsetY="-4.0" upX="0.0" upY="-1.0"/></y:ModelParameter></y:NodeLabel>
          <y:StyleProperties>
            <y:Property class="java.lang.Byte" name="com.yworks.flowchart.style.orientation" value="0"/>
          </y:StyleProperties>
        </y:GenericNode>
      </data>
    </node>
    <node id="n9">
      <data key="d6">
        <y:GenericNode configuration="com.yworks.flowchart.terminator">
          <y:Geometry height="40.0" width="255.2" x="513.3999999999996" y="716.0"/>
          <y:Fill color2="#B7C9E3" hasColor="false" transparent="false"/>
          <y:BorderStyle color="#000000" type="line" width="1.0"/>
          <y:NodeLabel alignment="center" autoSizePolicy="content" fontFamily="Dialog" fontSize="12" fontStyle="plain" hasBackgroundColor="false" hasLineColor="false" height="18.701171875" horizontalTextPosition="center" iconTextGap="4" modelName="custom" textColor="#000000" verticalTextPosition="bottom" visible="true" width="37.837890625" x="108.68105468750002" xml:space="preserve" y="10.6494140625">Конец<y:LabelModel><y:SmartNodeLabelModel distance="4.0"/></y:LabelModel><y:ModelParameter><y:SmartNodeLabelModelParameter labelRatioX="0.0" labelRatioY="0.0" nodeRatioX="0.0" nodeRatioY="0.0" offsetX="0.0" offsetY="0.0" upX="0.0" upY="-1.0"/></y:ModelParameter></y:NodeLabel>
        </y:GenericNode>
      </data>
    </node>
    <edge id="e0" source="n4" target="n8">
      <data key="d9"/>
      <data key="d10">
        <y:GenericEdge configuration="com.yworks.bpmn.Connection">
          <y:Path sx="0.0" sy="0.0" tx="0.0" ty="0.0"/>
          <y:LineStyle color="#000000" type="dotted" width="2.0"/>
          <y:Arrows source="none" target="none"/>
          <y:StyleProperties>
            <y:Property class="com.yworks.yfiles.bpmn.view.BPMNTypeEnum" name="com.yworks.bpmn.type" value="CONNECTION_TYPE_ASSOCIATION"/>
          </y:StyleProperties>
        </y:GenericEdge>
      </data>
    </edge>
    <edge id="e1" source="n0" target="n1">
      <data key="d9"/>
      <data key="d10">
        <y:PolyLineEdge>
          <y:Path sx="0.0" sy="0.0" tx="0.0" ty="0.0"/>
          <y:LineStyle color="#000000" type="line" width="1.0"/>
          <y:Arrows source="none" target="delta"/>
          <y:BendStyle smoothed="false"/>
        </y:PolyLineEdge>
      </data>
    </edge>
    <edge id="e2" source="n1" target="n2">
      <data key="d9"/>
      <data key="d10">
        <y:PolyLineEdge>
          <y:Path sx="0.0" sy="0.0" tx="0.0" ty="0.0"/>
          <y:LineStyle color="#000000" type="line" width="1.0"/>
          <y:Arrows source="none" target="delta"/>
          <y:BendStyle smoothed="false"/>
        </y:PolyLineEdge>
      </data>
    </edge>
    <edge id="e3" source="n2" target="n3">
      <data key="d9"/>
      <data key="d10">
        <y:PolyLineEdge>
          <y:Path sx="0.0" sy="0.0" tx="0.0" ty="0.0"/>
          <y:LineStyle color="#000000" type="line" width="1.0"/>
          <y:Arrows source="none" target="delta"/>
          <y:BendStyle smoothed="false"/>
        </y:PolyLineEdge>
      </data>
    </edge>
    <edge id="e4" source="n3" target="n4">
      <data key="d9"/>
      <data key="d10">
        <y:PolyLineEdge>
          <y:Path sx="0.0" sy="0.0" tx="0.0" ty="0.0"/>
          <y:LineStyle color="#000000" type="line" width="1.0"/>
          <y:Arrows source="none" target="delta"/>
          <y:BendStyle smoothed="false"/>
        </y:PolyLineEdge>
      </data>
    </edge>
    <edge id="e5" source="n4" target="n5">
      <data key="d9"/>
      <data key="d10">
        <y:PolyLineEdge>
          <y:Path sx="0.0" sy="0.0" tx="0.0" ty="0.0"/>
          <y:LineStyle color="#000000" type="line" width="1.0"/>
          <y:Arrows source="none" target="delta"/>
          <y:BendStyle smoothed="false"/>
        </y:PolyLineEdge>
      </data>
    </edge>
    <edge id="e6" source="n5" target="n6">
      <data key="d9"/>
      <data key="d10">
        <y:PolyLineEdge>
          <y:Path sx="0.0" sy="0.0" tx="0.0" ty="0.0"/>
          <y:LineStyle color="#000000" type="line" width="1.0"/>
          <y:Arrows source="none" target="delta"/>
          <y:BendStyle smoothed="false"/>
        </y:PolyLineEdge>
      </data>
    </edge>
    <edge id="e7" source="n6" target="n7">
      <data key="d9"/>
      <data key="d10">
        <y:PolyLineEdge>
          <y:Path sx="0.0" sy="0.0" tx="0.0" ty="0.0"/>
          <y:LineStyle color="#000000" type="line" width="1.0"/>
          <y:Arrows source="none" target="delta"/>
          <y:BendStyle smoothed="false"/>
        </y:PolyLineEdge>
      </data>
    </edge>
    <edge id="e8" source="n7" target="n9">
      <data key="d9"/>
      <data key="d10">
        <y:PolyLineEdge>
          <y:Path sx="0.0" sy="0.0" tx="0.0" ty="0.0"/>
          <y:LineStyle color="#000000" type="line" width="1.0"/>
          <y:Arrows source="none" target="delta"/>
          <y:BendStyle smoothed="false"/>
        </y:PolyLineEdge>
      </data>
    </edge>
  </graph>
  <data key="d7">
    <y:Resources/>
  </data>
</graphml>
